{
  "extends": "../../tslint.json",
  "rules": {
    "directive-selector": [
      true,
      "attribute",
      "ngb",
      "camelCase"
    ],
    "variable-name": {
      "options": [
        "ban-keywords",
        "check-format",
        "allow-leading-underscore",
        "allow-pascal-case"
      ]
    },
    "component-selector": [
      true,
      "element",
      "ngb",
      "kebab-case"
    ]
  }
}
